[
  {
    "id": 1101,
    "id_province": 11,
    "city_name": "KABUPATEN SIMEULUE"
  },
  {
    "id": 1102,
    "id_province": 11,
    "city_name": "KABUPATEN ACEH SINGKIL"
  },
  {
    "id": 1103,
    "id_province": 11,
    "city_name": "KABUPATEN ACEH SELATAN"
  },
  {
    "id": 1104,
    "id_province": 11,
    "city_name": "KABUPATEN ACEH TENGGARA"
  },
  {
    "id": 1105,
    "id_province": 11,
    "city_name": "KABUPATEN ACEH TIMUR"
  },
  {
    "id": 1106,
    "id_province": 11,
    "city_name": "KABUPATEN ACEH TENGAH"
  },
  {
    "id": 1107,
    "id_province": 11,
    "city_name": "KABUPATEN ACEH BARAT"
  },
  {
    "id": 1108,
    "id_province": 11,
    "city_name": "KABUPATEN ACEH BESAR"
  },
  {
    "id": 1109,
    "id_province": 11,
    "city_name": "KABUPATEN PIDIE"
  },
  {
    "id": 1110,
    "id_province": 11,
    "city_name": "KABUPATEN BIREUEN"
  },
  {
    "id": 1111,
    "id_province": 11,
    "city_name": "KABUPATEN ACEH UTARA"
  },
  {
    "id": 1112,
    "id_province": 11,
    "city_name": "KABUPATEN ACEH BARAT DAYA"
  },
  {
    "id": 1113,
    "id_province": 11,
    "city_name": "KABUPATEN GAYO LUES"
  },
  {
    "id": 1114,
    "id_province": 11,
    "city_name": "KABUPATEN ACEH TAMIANG"
  },
  {
    "id": 1115,
    "id_province": 11,
    "city_name": "KABUPATEN NAGAN RAYA"
  },
  {
    "id": 1116,
    "id_province": 11,
    "city_name": "KABUPATEN ACEH JAYA"
  },
  {
    "id": 1117,
    "id_province": 11,
    "city_name": "KABUPATEN BENER MERIAH"
  },
  {
    "id": 1118,
    "id_province": 11,
    "city_name": "KABUPATEN PIDIE JAYA"
  },
  {
    "id": 1171,
    "id_province": 11,
    "city_name": "KOTA BANDA ACEH"
  },
  {
    "id": 1172,
    "id_province": 11,
    "city_name": "KOTA SABANG"
  },
  {
    "id": 1173,
    "id_province": 11,
    "city_name": "KOTA LANGSA"
  },
  {
    "id": 1174,
    "id_province": 11,
    "city_name": "KOTA LHOKSEUMAWE"
  },
  {
    "id": 1175,
    "id_province": 11,
    "city_name": "KOTA SUBULUSSALAM"
  },
  {
    "id": 1201,
    "id_province": 12,
    "city_name": "KABUPATEN NIAS"
  },
  {
    "id": 1202,
    "id_province": 12,
    "city_name": "KABUPATEN MANDAILING NATAL"
  },
  {
    "id": 1203,
    "id_province": 12,
    "city_name": "KABUPATEN TAPANULI SELATAN"
  },
  {
    "id": 1204,
    "id_province": 12,
    "city_name": "KABUPATEN TAPANULI TENGAH"
  },
  {
    "id": 1205,
    "id_province": 12,
    "city_name": "KABUPATEN TAPANULI UTARA"
  },
  {
    "id": 1206,
    "id_province": 12,
    "city_name": "KABUPATEN TOBA SAMOSIR"
  },
  {
    "id": 1207,
    "id_province": 12,
    "city_name": "KABUPATEN LABUHAN BATU"
  },
  {
    "id": 1208,
    "id_province": 12,
    "city_name": "KABUPATEN ASAHAN"
  },
  {
    "id": 1209,
    "id_province": 12,
    "city_name": "KABUPATEN SIMALUNGUN"
  },
  {
    "id": 1210,
    "id_province": 12,
    "city_name": "KABUPATEN DAIRI"
  },
  {
    "id": 1211,
    "id_province": 12,
    "city_name": "KABUPATEN KARO"
  },
  {
    "id": 1212,
    "id_province": 12,
    "city_name": "KABUPATEN DELI SERDANG"
  },
  {
    "id": 1213,
    "id_province": 12,
    "city_name": "KABUPATEN LANGKAT"
  },
  {
    "id": 1214,
    "id_province": 12,
    "city_name": "KABUPATEN NIAS SELATAN"
  },
  {
    "id": 1215,
    "id_province": 12,
    "city_name": "KABUPATEN HUMBANG HASUNDUTAN"
  },
  {
    "id": 1216,
    "id_province": 12,
    "city_name": "KABUPATEN PAKPAK BHARAT"
  },
  {
    "id": 1217,
    "id_province": 12,
    "city_name": "KABUPATEN SAMOSIR"
  },
  {
    "id": 1218,
    "id_province": 12,
    "city_name": "KABUPATEN SERDANG BEDAGAI"
  },
  {
    "id": 1219,
    "id_province": 12,
    "city_name": "KABUPATEN BATU BARA"
  },
  {
    "id": 1220,
    "id_province": 12,
    "city_name": "KABUPATEN PADANG LAWAS UTARA"
  },
  {
    "id": 1221,
    "id_province": 12,
    "city_name": "KABUPATEN PADANG LAWAS"
  },
  {
    "id": 1222,
    "id_province": 12,
    "city_name": "KABUPATEN LABUHAN BATU SELATAN"
  },
  {
    "id": 1223,
    "id_province": 12,
    "city_name": "KABUPATEN LABUHAN BATU UTARA"
  },
  {
    "id": 1224,
    "id_province": 12,
    "city_name": "KABUPATEN NIAS UTARA"
  },
  {
    "id": 1225,
    "id_province": 12,
    "city_name": "KABUPATEN NIAS BARAT"
  },
  {
    "id": 1271,
    "id_province": 12,
    "city_name": "KOTA SIBOLGA"
  },
  {
    "id": 1272,
    "id_province": 12,
    "city_name": "KOTA TANJUNG BALAI"
  },
  {
    "id": 1273,
    "id_province": 12,
    "city_name": "KOTA PEMATANG SIANTAR"
  },
  {
    "id": 1274,
    "id_province": 12,
    "city_name": "KOTA TEBING TINGGI"
  },
  {
    "id": 1275,
    "id_province": 12,
    "city_name": "KOTA MEDAN"
  },
  {
    "id": 1276,
    "id_province": 12,
    "city_name": "KOTA BINJAI"
  },
  {
    "id": 1277,
    "id_province": 12,
    "city_name": "KOTA PADANGSIDIMPUAN"
  },
  {
    "id": 1278,
    "id_province": 12,
    "city_name": "KOTA GUNUNGSITOLI"
  },
  {
    "id": 1301,
    "id_province": 13,
    "city_name": "KABUPATEN KEPULAUAN MENTAWAI"
  },
  {
    "id": 1302,
    "id_province": 13,
    "city_name": "KABUPATEN PESISIR SELATAN"
  },
  {
    "id": 1303,
    "id_province": 13,
    "city_name": "KABUPATEN SOLOK"
  },
  {
    "id": 1304,
    "id_province": 13,
    "city_name": "KABUPATEN SIJUNJUNG"
  },
  {
    "id": 1305,
    "id_province": 13,
    "city_name": "KABUPATEN TANAH DATAR"
  },
  {
    "id": 1306,
    "id_province": 13,
    "city_name": "KABUPATEN PADANG PARIAMAN"
  },
  {
    "id": 1307,
    "id_province": 13,
    "city_name": "KABUPATEN AGAM"
  },
  {
    "id": 1308,
    "id_province": 13,
    "city_name": "KABUPATEN LIMA PULUH KOTA"
  },
  {
    "id": 1309,
    "id_province": 13,
    "city_name": "KABUPATEN PASAMAN"
  },
  {
    "id": 1310,
    "id_province": 13,
    "city_name": "KABUPATEN SOLOK SELATAN"
  },
  {
    "id": 1311,
    "id_province": 13,
    "city_name": "KABUPATEN DHARMASRAYA"
  },
  {
    "id": 1312,
    "id_province": 13,
    "city_name": "KABUPATEN PASAMAN BARAT"
  },
  {
    "id": 1371,
    "id_province": 13,
    "city_name": "KOTA PADANG"
  },
  {
    "id": 1372,
    "id_province": 13,
    "city_name": "KOTA SOLOK"
  },
  {
    "id": 1373,
    "id_province": 13,
    "city_name": "KOTA SAWAH LUNTO"
  },
  {
    "id": 1374,
    "id_province": 13,
    "city_name": "KOTA PADANG PANJANG"
  },
  {
    "id": 1375,
    "id_province": 13,
    "city_name": "KOTA BUKITTINGGI"
  },
  {
    "id": 1376,
    "id_province": 13,
    "city_name": "KOTA PAYAKUMBUH"
  },
  {
    "id": 1377,
    "id_province": 13,
    "city_name": "KOTA PARIAMAN"
  },
  {
    "id": 1401,
    "id_province": 14,
    "city_name": "KABUPATEN KUANTAN SINGINGI"
  },
  {
    "id": 1402,
    "id_province": 14,
    "city_name": "KABUPATEN INDRAGIRI HULU"
  },
  {
    "id": 1403,
    "id_province": 14,
    "city_name": "KABUPATEN INDRAGIRI HILIR"
  },
  {
    "id": 1404,
    "id_province": 14,
    "city_name": "KABUPATEN PELALAWAN"
  },
  {
    "id": 1405,
    "id_province": 14,
    "city_name": "KABUPATEN S I A K"
  },
  {
    "id": 1406,
    "id_province": 14,
    "city_name": "KABUPATEN KAMPAR"
  },
  {
    "id": 1407,
    "id_province": 14,
    "city_name": "KABUPATEN ROKAN HULU"
  },
  {
    "id": 1408,
    "id_province": 14,
    "city_name": "KABUPATEN BENGKALIS"
  },
  {
    "id": 1409,
    "id_province": 14,
    "city_name": "KABUPATEN ROKAN HILIR"
  },
  {
    "id": 1410,
    "id_province": 14,
    "city_name": "KABUPATEN KEPULAUAN MERANTI"
  },
  {
    "id": 1471,
    "id_province": 14,
    "city_name": "KOTA PEKANBARU"
  },
  {
    "id": 1473,
    "id_province": 14,
    "city_name": "KOTA D U M A I"
  },
  {
    "id": 1501,
    "id_province": 15,
    "city_name": "KABUPATEN KERINCI"
  },
  {
    "id": 1502,
    "id_province": 15,
    "city_name": "KABUPATEN MERANGIN"
  },
  {
    "id": 1503,
    "id_province": 15,
    "city_name": "KABUPATEN SAROLANGUN"
  },
  {
    "id": 1504,
    "id_province": 15,
    "city_name": "KABUPATEN BATANG HARI"
  },
  {
    "id": 1505,
    "id_province": 15,
    "city_name": "KABUPATEN MUARO JAMBI"
  },
  {
    "id": 1506,
    "id_province": 15,
    "city_name": "KABUPATEN TANJUNG JABUNG TIMUR"
  },
  {
    "id": 1507,
    "id_province": 15,
    "city_name": "KABUPATEN TANJUNG JABUNG BARAT"
  },
  {
    "id": 1508,
    "id_province": 15,
    "city_name": "KABUPATEN TEBO"
  },
  {
    "id": 1509,
    "id_province": 15,
    "city_name": "KABUPATEN BUNGO"
  },
  {
    "id": 1571,
    "id_province": 15,
    "city_name": "KOTA JAMBI"
  },
  {
    "id": 1572,
    "id_province": 15,
    "city_name": "KOTA SUNGAI PENUH"
  },
  {
    "id": 1601,
    "id_province": 16,
    "city_name": "KABUPATEN OGAN KOMERING ULU"
  },
  {
    "id": 1602,
    "id_province": 16,
    "city_name": "KABUPATEN OGAN KOMERING ILIR"
  },
  {
    "id": 1603,
    "id_province": 16,
    "city_name": "KABUPATEN MUARA ENIM"
  },
  {
    "id": 1604,
    "id_province": 16,
    "city_name": "KABUPATEN LAHAT"
  },
  {
    "id": 1605,
    "id_province": 16,
    "city_name": "KABUPATEN MUSI RAWAS"
  },
  {
    "id": 1606,
    "id_province": 16,
    "city_name": "KABUPATEN MUSI BANYUASIN"
  },
  {
    "id": 1607,
    "id_province": 16,
    "city_name": "KABUPATEN BANYU ASIN"
  },
  {
    "id": 1608,
    "id_province": 16,
    "city_name": "KABUPATEN OGAN KOMERING ULU SELATAN"
  },
  {
    "id": 1609,
    "id_province": 16,
    "city_name": "KABUPATEN OGAN KOMERING ULU TIMUR"
  },
  {
    "id": 1610,
    "id_province": 16,
    "city_name": "KABUPATEN OGAN ILIR"
  },
  {
    "id": 1611,
    "id_province": 16,
    "city_name": "KABUPATEN EMPAT LAWANG"
  },
  {
    "id": 1612,
    "id_province": 16,
    "city_name": "KABUPATEN PENUKAL ABAB LEMATANG ILIR"
  },
  {
    "id": 1613,
    "id_province": 16,
    "city_name": "KABUPATEN MUSI RAWAS UTARA"
  },
  {
    "id": 1671,
    "id_province": 16,
    "city_name": "KOTA PALEMBANG"
  },
  {
    "id": 1672,
    "id_province": 16,
    "city_name": "KOTA PRABUMULIH"
  },
  {
    "id": 1673,
    "id_province": 16,
    "city_name": "KOTA PAGAR ALAM"
  },
  {
    "id": 1674,
    "id_province": 16,
    "city_name": "KOTA LUBUKLINGGAU"
  },
  {
    "id": 1701,
    "id_province": 17,
    "city_name": "KABUPATEN BENGKULU SELATAN"
  },
  {
    "id": 1702,
    "id_province": 17,
    "city_name": "KABUPATEN REJANG LEBONG"
  },
  {
    "id": 1703,
    "id_province": 17,
    "city_name": "KABUPATEN BENGKULU UTARA"
  },
  {
    "id": 1704,
    "id_province": 17,
    "city_name": "KABUPATEN KAUR"
  },
  {
    "id": 1705,
    "id_province": 17,
    "city_name": "KABUPATEN SELUMA"
  },
  {
    "id": 1706,
    "id_province": 17,
    "city_name": "KABUPATEN MUKOMUKO"
  },
  {
    "id": 1707,
    "id_province": 17,
    "city_name": "KABUPATEN LEBONG"
  },
  {
    "id": 1708,
    "id_province": 17,
    "city_name": "KABUPATEN KEPAHIANG"
  },
  {
    "id": 1709,
    "id_province": 17,
    "city_name": "KABUPATEN BENGKULU TENGAH"
  },
  {
    "id": 1771,
    "id_province": 17,
    "city_name": "KOTA BENGKULU"
  },
  {
    "id": 1801,
    "id_province": 18,
    "city_name": "KABUPATEN LAMPUNG BARAT"
  },
  {
    "id": 1802,
    "id_province": 18,
    "city_name": "KABUPATEN TANGGAMUS"
  },
  {
    "id": 1803,
    "id_province": 18,
    "city_name": "KABUPATEN LAMPUNG SELATAN"
  },
  {
    "id": 1804,
    "id_province": 18,
    "city_name": "KABUPATEN LAMPUNG TIMUR"
  },
  {
    "id": 1805,
    "id_province": 18,
    "city_name": "KABUPATEN LAMPUNG TENGAH"
  },
  {
    "id": 1806,
    "id_province": 18,
    "city_name": "KABUPATEN LAMPUNG UTARA"
  },
  {
    "id": 1807,
    "id_province": 18,
    "city_name": "KABUPATEN WAY KANAN"
  },
  {
    "id": 1808,
    "id_province": 18,
    "city_name": "KABUPATEN TULANGBAWANG"
  },
  {
    "id": 1809,
    "id_province": 18,
    "city_name": "KABUPATEN PESAWARAN"
  },
  {
    "id": 1810,
    "id_province": 18,
    "city_name": "KABUPATEN PRINGSEWU"
  },
  {
    "id": 1811,
    "id_province": 18,
    "city_name": "KABUPATEN MESUJI"
  },
  {
    "id": 1812,
    "id_province": 18,
    "city_name": "KABUPATEN TULANG BAWANG BARAT"
  },
  {
    "id": 1813,
    "id_province": 18,
    "city_name": "KABUPATEN PESISIR BARAT"
  },
  {
    "id": 1871,
    "id_province": 18,
    "city_name": "KOTA BANDAR LAMPUNG"
  },
  {
    "id": 1872,
    "id_province": 18,
    "city_name": "KOTA METRO"
  },
  {
    "id": 1901,
    "id_province": 19,
    "city_name": "KABUPATEN BANGKA"
  },
  {
    "id": 1902,
    "id_province": 19,
    "city_name": "KABUPATEN BELITUNG"
  },
  {
    "id": 1903,
    "id_province": 19,
    "city_name": "KABUPATEN BANGKA BARAT"
  },
  {
    "id": 1904,
    "id_province": 19,
    "city_name": "KABUPATEN BANGKA TENGAH"
  },
  {
    "id": 1905,
    "id_province": 19,
    "city_name": "KABUPATEN BANGKA SELATAN"
  },
  {
    "id": 1906,
    "id_province": 19,
    "city_name": "KABUPATEN BELITUNG TIMUR"
  },
  {
    "id": 1971,
    "id_province": 19,
    "city_name": "KOTA PANGKAL PINANG"
  },
  {
    "id": 2101,
    "id_province": 21,
    "city_name": "KABUPATEN KARIMUN"
  },
  {
    "id": 2102,
    "id_province": 21,
    "city_name": "KABUPATEN BINTAN"
  },
  {
    "id": 2103,
    "id_province": 21,
    "city_name": "KABUPATEN NATUNA"
  },
  {
    "id": 2104,
    "id_province": 21,
    "city_name": "KABUPATEN LINGGA"
  },
  {
    "id": 2105,
    "id_province": 21,
    "city_name": "KABUPATEN KEPULAUAN ANAMBAS"
  },
  {
    "id": 2171,
    "id_province": 21,
    "city_name": "KOTA B A T A M"
  },
  {
    "id": 2172,
    "id_province": 21,
    "city_name": "KOTA TANJUNG PINANG"
  },
  {
    "id": 3101,
    "id_province": 31,
    "city_name": "KABUPATEN KEPULAUAN SERIBU"
  },
  {
    "id": 3171,
    "id_province": 31,
    "city_name": "KOTA JAKARTA SELATAN"
  },
  {
    "id": 3172,
    "id_province": 31,
    "city_name": "KOTA JAKARTA TIMUR"
  },
  {
    "id": 3173,
    "id_province": 31,
    "city_name": "KOTA JAKARTA PUSAT"
  },
  {
    "id": 3174,
    "id_province": 31,
    "city_name": "KOTA JAKARTA BARAT"
  },
  {
    "id": 3175,
    "id_province": 31,
    "city_name": "KOTA JAKARTA UTARA"
  },
  {
    "id": 3201,
    "id_province": 32,
    "city_name": "KABUPATEN BOGOR"
  },
  {
    "id": 3202,
    "id_province": 32,
    "city_name": "KABUPATEN SUKABUMI"
  },
  {
    "id": 3203,
    "id_province": 32,
    "city_name": "KABUPATEN CIANJUR"
  },
  {
    "id": 3204,
    "id_province": 32,
    "city_name": "KABUPATEN BANDUNG"
  },
  {
    "id": 3205,
    "id_province": 32,
    "city_name": "KABUPATEN GARUT"
  },
  {
    "id": 3206,
    "id_province": 32,
    "city_name": "KABUPATEN TASIKMALAYA"
  },
  {
    "id": 3207,
    "id_province": 32,
    "city_name": "KABUPATEN CIAMIS"
  },
  {
    "id": 3208,
    "id_province": 32,
    "city_name": "KABUPATEN KUNINGAN"
  },
  {
    "id": 3209,
    "id_province": 32,
    "city_name": "KABUPATEN CIREBON"
  },
  {
    "id": 3210,
    "id_province": 32,
    "city_name": "KABUPATEN MAJALENGKA"
  },
  {
    "id": 3211,
    "id_province": 32,
    "city_name": "KABUPATEN SUMEDANG"
  },
  {
    "id": 3212,
    "id_province": 32,
    "city_name": "KABUPATEN INDRAMAYU"
  },
  {
    "id": 3213,
    "id_province": 32,
    "city_name": "KABUPATEN SUBANG"
  },
  {
    "id": 3214,
    "id_province": 32,
    "city_name": "KABUPATEN PURWAKARTA"
  },
  {
    "id": 3215,
    "id_province": 32,
    "city_name": "KABUPATEN KARAWANG"
  },
  {
    "id": 3216,
    "id_province": 32,
    "city_name": "KABUPATEN BEKASI"
  },
  {
    "id": 3217,
    "id_province": 32,
    "city_name": "KABUPATEN BANDUNG BARAT"
  },
  {
    "id": 3218,
    "id_province": 32,
    "city_name": "KABUPATEN PANGANDARAN"
  },
  {
    "id": 3271,
    "id_province": 32,
    "city_name": "KOTA BOGOR"
  },
  {
    "id": 3272,
    "id_province": 32,
    "city_name": "KOTA SUKABUMI"
  },
  {
    "id": 3273,
    "id_province": 32,
    "city_name": "KOTA BANDUNG"
  },
  {
    "id": 3274,
    "id_province": 32,
    "city_name": "KOTA CIREBON"
  },
  {
    "id": 3275,
    "id_province": 32,
    "city_name": "KOTA BEKASI"
  },
  {
    "id": 3276,
    "id_province": 32,
    "city_name": "KOTA DEPOK"
  },
  {
    "id": 3277,
    "id_province": 32,
    "city_name": "KOTA CIMAHI"
  },
  {
    "id": 3278,
    "id_province": 32,
    "city_name": "KOTA TASIKMALAYA"
  },
  {
    "id": 3279,
    "id_province": 32,
    "city_name": "KOTA BANJAR"
  },
  {
    "id": 3301,
    "id_province": 33,
    "city_name": "KABUPATEN CILACAP"
  },
  {
    "id": 3302,
    "id_province": 33,
    "city_name": "KABUPATEN BANYUMAS"
  },
  {
    "id": 3303,
    "id_province": 33,
    "city_name": "KABUPATEN PURBALINGGA"
  },
  {
    "id": 3304,
    "id_province": 33,
    "city_name": "KABUPATEN BANJARNEGARA"
  },
  {
    "id": 3305,
    "id_province": 33,
    "city_name": "KABUPATEN KEBUMEN"
  },
  {
    "id": 3306,
    "id_province": 33,
    "city_name": "KABUPATEN PURWOREJO"
  },
  {
    "id": 3307,
    "id_province": 33,
    "city_name": "KABUPATEN WONOSOBO"
  },
  {
    "id": 3308,
    "id_province": 33,
    "city_name": "KABUPATEN MAGELANG"
  },
  {
    "id": 3309,
    "id_province": 33,
    "city_name": "KABUPATEN BOYOLALI"
  },
  {
    "id": 3310,
    "id_province": 33,
    "city_name": "KABUPATEN KLATEN"
  },
  {
    "id": 3311,
    "id_province": 33,
    "city_name": "KABUPATEN SUKOHARJO"
  },
  {
    "id": 3312,
    "id_province": 33,
    "city_name": "KABUPATEN WONOGIRI"
  },
  {
    "id": 3313,
    "id_province": 33,
    "city_name": "KABUPATEN KARANGANYAR"
  },
  {
    "id": 3314,
    "id_province": 33,
    "city_name": "KABUPATEN SRAGEN"
  },
  {
    "id": 3315,
    "id_province": 33,
    "city_name": "KABUPATEN GROBOGAN"
  },
  {
    "id": 3316,
    "id_province": 33,
    "city_name": "KABUPATEN BLORA"
  },
  {
    "id": 3317,
    "id_province": 33,
    "city_name": "KABUPATEN REMBANG"
  },
  {
    "id": 3318,
    "id_province": 33,
    "city_name": "KABUPATEN PATI"
  },
  {
    "id": 3319,
    "id_province": 33,
    "city_name": "KABUPATEN KUDUS"
  },
  {
    "id": 3320,
    "id_province": 33,
    "city_name": "KABUPATEN JEPARA"
  },
  {
    "id": 3321,
    "id_province": 33,
    "city_name": "KABUPATEN DEMAK"
  },
  {
    "id": 3322,
    "id_province": 33,
    "city_name": "KABUPATEN SEMARANG"
  },
  {
    "id": 3323,
    "id_province": 33,
    "city_name": "KABUPATEN TEMANGGUNG"
  },
  {
    "id": 3324,
    "id_province": 33,
    "city_name": "KABUPATEN KENDAL"
  },
  {
    "id": 3325,
    "id_province": 33,
    "city_name": "KABUPATEN BATANG"
  },
  {
    "id": 3326,
    "id_province": 33,
    "city_name": "KABUPATEN PEKALONGAN"
  },
  {
    "id": 3327,
    "id_province": 33,
    "city_name": "KABUPATEN PEMALANG"
  },
  {
    "id": 3328,
    "id_province": 33,
    "city_name": "KABUPATEN TEGAL"
  },
  {
    "id": 3329,
    "id_province": 33,
    "city_name": "KABUPATEN BREBES"
  },
  {
    "id": 3371,
    "id_province": 33,
    "city_name": "KOTA MAGELANG"
  },
  {
    "id": 3372,
    "id_province": 33,
    "city_name": "KOTA SURAKARTA"
  },
  {
    "id": 3373,
    "id_province": 33,
    "city_name": "KOTA SALATIGA"
  },
  {
    "id": 3374,
    "id_province": 33,
    "city_name": "KOTA SEMARANG"
  },
  {
    "id": 3375,
    "id_province": 33,
    "city_name": "KOTA PEKALONGAN"
  },
  {
    "id": 3376,
    "id_province": 33,
    "city_name": "KOTA TEGAL"
  },
  {
    "id": 3401,
    "id_province": 34,
    "city_name": "KABUPATEN KULON PROGO"
  },
  {
    "id": 3402,
    "id_province": 34,
    "city_name": "KABUPATEN BANTUL"
  },
  {
    "id": 3403,
    "id_province": 34,
    "city_name": "KABUPATEN GUNUNG KIDUL"
  },
  {
    "id": 3404,
    "id_province": 34,
    "city_name": "KABUPATEN SLEMAN"
  },
  {
    "id": 3471,
    "id_province": 34,
    "city_name": "KOTA YOGYAKARTA"
  },
  {
    "id": 3501,
    "id_province": 35,
    "city_name": "KABUPATEN PACITAN"
  },
  {
    "id": 3502,
    "id_province": 35,
    "city_name": "KABUPATEN PONOROGO"
  },
  {
    "id": 3503,
    "id_province": 35,
    "city_name": "KABUPATEN TRENGGALEK"
  },
  {
    "id": 3504,
    "id_province": 35,
    "city_name": "KABUPATEN TULUNGAGUNG"
  },
  {
    "id": 3505,
    "id_province": 35,
    "city_name": "KABUPATEN BLITAR"
  },
  {
    "id": 3506,
    "id_province": 35,
    "city_name": "KABUPATEN KEDIRI"
  },
  {
    "id": 3507,
    "id_province": 35,
    "city_name": "KABUPATEN MALANG"
  },
  {
    "id": 3508,
    "id_province": 35,
    "city_name": "KABUPATEN LUMAJANG"
  },
  {
    "id": 3509,
    "id_province": 35,
    "city_name": "KABUPATEN JEMBER"
  },
  {
    "id": 3510,
    "id_province": 35,
    "city_name": "KABUPATEN BANYUWANGI"
  },
  {
    "id": 3511,
    "id_province": 35,
    "city_name": "KABUPATEN BONDOWOSO"
  },
  {
    "id": 3512,
    "id_province": 35,
    "city_name": "KABUPATEN SITUBONDO"
  },
  {
    "id": 3513,
    "id_province": 35,
    "city_name": "KABUPATEN PROBOLINGGO"
  },
  {
    "id": 3514,
    "id_province": 35,
    "city_name": "KABUPATEN PASURUAN"
  },
  {
    "id": 3515,
    "id_province": 35,
    "city_name": "KABUPATEN SIDOARJO"
  },
  {
    "id": 3516,
    "id_province": 35,
    "city_name": "KABUPATEN MOJOKERTO"
  },
  {
    "id": 3517,
    "id_province": 35,
    "city_name": "KABUPATEN JOMBANG"
  },
  {
    "id": 3518,
    "id_province": 35,
    "city_name": "KABUPATEN NGANJUK"
  },
  {
    "id": 3519,
    "id_province": 35,
    "city_name": "KABUPATEN MADIUN"
  },
  {
    "id": 3520,
    "id_province": 35,
    "city_name": "KABUPATEN MAGETAN"
  },
  {
    "id": 3521,
    "id_province": 35,
    "city_name": "KABUPATEN NGAWI"
  },
  {
    "id": 3522,
    "id_province": 35,
    "city_name": "KABUPATEN BOJONEGORO"
  },
  {
    "id": 3523,
    "id_province": 35,
    "city_name": "KABUPATEN TUBAN"
  },
  {
    "id": 3524,
    "id_province": 35,
    "city_name": "KABUPATEN LAMONGAN"
  },
  {
    "id": 3525,
    "id_province": 35,
    "city_name": "KABUPATEN GRESIK"
  },
  {
    "id": 3526,
    "id_province": 35,
    "city_name": "KABUPATEN BANGKALAN"
  },
  {
    "id": 3527,
    "id_province": 35,
    "city_name": "KABUPATEN SAMPANG"
  },
  {
    "id": 3528,
    "id_province": 35,
    "city_name": "KABUPATEN PAMEKASAN"
  },
  {
    "id": 3529,
    "id_province": 35,
    "city_name": "KABUPATEN SUMENEP"
  },
  {
    "id": 3571,
    "id_province": 35,
    "city_name": "KOTA KEDIRI"
  },
  {
    "id": 3572,
    "id_province": 35,
    "city_name": "KOTA BLITAR"
  },
  {
    "id": 3573,
    "id_province": 35,
    "city_name": "KOTA MALANG"
  },
  {
    "id": 3574,
    "id_province": 35,
    "city_name": "KOTA PROBOLINGGO"
  },
  {
    "id": 3575,
    "id_province": 35,
    "city_name": "KOTA PASURUAN"
  },
  {
    "id": 3576,
    "id_province": 35,
    "city_name": "KOTA MOJOKERTO"
  },
  {
    "id": 3577,
    "id_province": 35,
    "city_name": "KOTA MADIUN"
  },
  {
    "id": 3578,
    "id_province": 35,
    "city_name": "KOTA SURABAYA"
  },
  {
    "id": 3579,
    "id_province": 35,
    "city_name": "KOTA BATU"
  },
  {
    "id": 3601,
    "id_province": 36,
    "city_name": "KABUPATEN PANDEGLANG"
  },
  {
    "id": 3602,
    "id_province": 36,
    "city_name": "KABUPATEN LEBAK"
  },
  {
    "id": 3603,
    "id_province": 36,
    "city_name": "KABUPATEN TANGERANG"
  },
  {
    "id": 3604,
    "id_province": 36,
    "city_name": "KABUPATEN SERANG"
  },
  {
    "id": 3671,
    "id_province": 36,
    "city_name": "KOTA TANGERANG"
  },
  {
    "id": 3672,
    "id_province": 36,
    "city_name": "KOTA CILEGON"
  },
  {
    "id": 3673,
    "id_province": 36,
    "city_name": "KOTA SERANG"
  },
  {
    "id": 3674,
    "id_province": 36,
    "city_name": "KOTA TANGERANG SELATAN"
  },
  {
    "id": 5101,
    "id_province": 51,
    "city_name": "KABUPATEN JEMBRANA"
  },
  {
    "id": 5102,
    "id_province": 51,
    "city_name": "KABUPATEN TABANAN"
  },
  {
    "id": 5103,
    "id_province": 51,
    "city_name": "KABUPATEN BADUNG"
  },
  {
    "id": 5104,
    "id_province": 51,
    "city_name": "KABUPATEN GIANYAR"
  },
  {
    "id": 5105,
    "id_province": 51,
    "city_name": "KABUPATEN KLUNGKUNG"
  },
  {
    "id": 5106,
    "id_province": 51,
    "city_name": "KABUPATEN BANGLI"
  },
  {
    "id": 5107,
    "id_province": 51,
    "city_name": "KABUPATEN KARANG ASEM"
  },
  {
    "id": 5108,
    "id_province": 51,
    "city_name": "KABUPATEN BULELENG"
  },
  {
    "id": 5171,
    "id_province": 51,
    "city_name": "KOTA DENPASAR"
  },
  {
    "id": 5201,
    "id_province": 52,
    "city_name": "KABUPATEN LOMBOK BARAT"
  },
  {
    "id": 5202,
    "id_province": 52,
    "city_name": "KABUPATEN LOMBOK TENGAH"
  },
  {
    "id": 5203,
    "id_province": 52,
    "city_name": "KABUPATEN LOMBOK TIMUR"
  },
  {
    "id": 5204,
    "id_province": 52,
    "city_name": "KABUPATEN SUMBAWA"
  },
  {
    "id": 5205,
    "id_province": 52,
    "city_name": "KABUPATEN DOMPU"
  },
  {
    "id": 5206,
    "id_province": 52,
    "city_name": "KABUPATEN BIMA"
  },
  {
    "id": 5207,
    "id_province": 52,
    "city_name": "KABUPATEN SUMBAWA BARAT"
  },
  {
    "id": 5208,
    "id_province": 52,
    "city_name": "KABUPATEN LOMBOK UTARA"
  },
  {
    "id": 5271,
    "id_province": 52,
    "city_name": "KOTA MATARAM"
  },
  {
    "id": 5272,
    "id_province": 52,
    "city_name": "KOTA BIMA"
  },
  {
    "id": 5301,
    "id_province": 53,
    "city_name": "KABUPATEN SUMBA BARAT"
  },
  {
    "id": 5302,
    "id_province": 53,
    "city_name": "KABUPATEN SUMBA TIMUR"
  },
  {
    "id": 5303,
    "id_province": 53,
    "city_name": "KABUPATEN KUPANG"
  },
  {
    "id": 5304,
    "id_province": 53,
    "city_name": "KABUPATEN TIMOR TENGAH SELATAN"
  },
  {
    "id": 5305,
    "id_province": 53,
    "city_name": "KABUPATEN TIMOR TENGAH UTARA"
  },
  {
    "id": 5306,
    "id_province": 53,
    "city_name": "KABUPATEN BELU"
  },
  {
    "id": 5307,
    "id_province": 53,
    "city_name": "KABUPATEN ALOR"
  },
  {
    "id": 5308,
    "id_province": 53,
    "city_name": "KABUPATEN LEMBATA"
  },
  {
    "id": 5309,
    "id_province": 53,
    "city_name": "KABUPATEN FLORES TIMUR"
  },
  {
    "id": 5310,
    "id_province": 53,
    "city_name": "KABUPATEN SIKKA"
  },
  {
    "id": 5311,
    "id_province": 53,
    "city_name": "KABUPATEN ENDE"
  },
  {
    "id": 5312,
    "id_province": 53,
    "city_name": "KABUPATEN NGADA"
  },
  {
    "id": 5313,
    "id_province": 53,
    "city_name": "KABUPATEN MANGGARAI"
  },
  {
    "id": 5314,
    "id_province": 53,
    "city_name": "KABUPATEN ROTE NDAO"
  },
  {
    "id": 5315,
    "id_province": 53,
    "city_name": "KABUPATEN MANGGARAI BARAT"
  },
  {
    "id": 5316,
    "id_province": 53,
    "city_name": "KABUPATEN SUMBA TENGAH"
  },
  {
    "id": 5317,
    "id_province": 53,
    "city_name": "KABUPATEN SUMBA BARAT DAYA"
  },
  {
    "id": 5318,
    "id_province": 53,
    "city_name": "KABUPATEN NAGEKEO"
  },
  {
    "id": 5319,
    "id_province": 53,
    "city_name": "KABUPATEN MANGGARAI TIMUR"
  },
  {
    "id": 5320,
    "id_province": 53,
    "city_name": "KABUPATEN SABU RAIJUA"
  },
  {
    "id": 5321,
    "id_province": 53,
    "city_name": "KABUPATEN MALAKA"
  },
  {
    "id": 5371,
    "id_province": 53,
    "city_name": "KOTA KUPANG"
  },
  {
    "id": 6101,
    "id_province": 61,
    "city_name": "KABUPATEN SAMBAS"
  },
  {
    "id": 6102,
    "id_province": 61,
    "city_name": "KABUPATEN BENGKAYANG"
  },
  {
    "id": 6103,
    "id_province": 61,
    "city_name": "KABUPATEN LANDAK"
  },
  {
    "id": 6104,
    "id_province": 61,
    "city_name": "KABUPATEN MEMPAWAH"
  },
  {
    "id": 6105,
    "id_province": 61,
    "city_name": "KABUPATEN SANGGAU"
  },
  {
    "id": 6106,
    "id_province": 61,
    "city_name": "KABUPATEN KETAPANG"
  },
  {
    "id": 6107,
    "id_province": 61,
    "city_name": "KABUPATEN SINTANG"
  },
  {
    "id": 6108,
    "id_province": 61,
    "city_name": "KABUPATEN KAPUAS HULU"
  },
  {
    "id": 6109,
    "id_province": 61,
    "city_name": "KABUPATEN SEKADAU"
  },
  {
    "id": 6110,
    "id_province": 61,
    "city_name": "KABUPATEN MELAWI"
  },
  {
    "id": 6111,
    "id_province": 61,
    "city_name": "KABUPATEN KAYONG UTARA"
  },
  {
    "id": 6112,
    "id_province": 61,
    "city_name": "KABUPATEN KUBU RAYA"
  },
  {
    "id": 6171,
    "id_province": 61,
    "city_name": "KOTA PONTIANAK"
  },
  {
    "id": 6172,
    "id_province": 61,
    "city_name": "KOTA SINGKAWANG"
  },
  {
    "id": 6201,
    "id_province": 62,
    "city_name": "KABUPATEN KOTAWARINGIN BARAT"
  },
  {
    "id": 6202,
    "id_province": 62,
    "city_name": "KABUPATEN KOTAWARINGIN TIMUR"
  },
  {
    "id": 6203,
    "id_province": 62,
    "city_name": "KABUPATEN KAPUAS"
  },
  {
    "id": 6204,
    "id_province": 62,
    "city_name": "KABUPATEN BARITO SELATAN"
  },
  {
    "id": 6205,
    "id_province": 62,
    "city_name": "KABUPATEN BARITO UTARA"
  },
  {
    "id": 6206,
    "id_province": 62,
    "city_name": "KABUPATEN SUKAMARA"
  },
  {
    "id": 6207,
    "id_province": 62,
    "city_name": "KABUPATEN LAMANDAU"
  },
  {
    "id": 6208,
    "id_province": 62,
    "city_name": "KABUPATEN SERUYAN"
  },
  {
    "id": 6209,
    "id_province": 62,
    "city_name": "KABUPATEN KATINGAN"
  },
  {
    "id": 6210,
    "id_province": 62,
    "city_name": "KABUPATEN PULANG PISAU"
  },
  {
    "id": 6211,
    "id_province": 62,
    "city_name": "KABUPATEN GUNUNG MAS"
  },
  {
    "id": 6212,
    "id_province": 62,
    "city_name": "KABUPATEN BARITO TIMUR"
  },
  {
    "id": 6213,
    "id_province": 62,
    "city_name": "KABUPATEN MURUNG RAYA"
  },
  {
    "id": 6271,
    "id_province": 62,
    "city_name": "KOTA PALANGKA RAYA"
  },
  {
    "id": 6301,
    "id_province": 63,
    "city_name": "KABUPATEN TANAH LAUT"
  },
  {
    "id": 6302,
    "id_province": 63,
    "city_name": "KABUPATEN KOTA BARU"
  },
  {
    "id": 6303,
    "id_province": 63,
    "city_name": "KABUPATEN BANJAR"
  },
  {
    "id": 6304,
    "id_province": 63,
    "city_name": "KABUPATEN BARITO KUALA"
  },
  {
    "id": 6305,
    "id_province": 63,
    "city_name": "KABUPATEN TAPIN"
  },
  {
    "id": 6306,
    "id_province": 63,
    "city_name": "KABUPATEN HULU SUNGAI SELATAN"
  },
  {
    "id": 6307,
    "id_province": 63,
    "city_name": "KABUPATEN HULU SUNGAI TENGAH"
  },
  {
    "id": 6308,
    "id_province": 63,
    "city_name": "KABUPATEN HULU SUNGAI UTARA"
  },
  {
    "id": 6309,
    "id_province": 63,
    "city_name": "KABUPATEN TABALONG"
  },
  {
    "id": 6310,
    "id_province": 63,
    "city_name": "KABUPATEN TANAH BUMBU"
  },
  {
    "id": 6311,
    "id_province": 63,
    "city_name": "KABUPATEN BALANGAN"
  },
  {
    "id": 6371,
    "id_province": 63,
    "city_name": "KOTA BANJARMASIN"
  },
  {
    "id": 6372,
    "id_province": 63,
    "city_name": "KOTA BANJAR BARU"
  },
  {
    "id": 6401,
    "id_province": 64,
    "city_name": "KABUPATEN PASER"
  },
  {
    "id": 6402,
    "id_province": 64,
    "city_name": "KABUPATEN KUTAI BARAT"
  },
  {
    "id": 6403,
    "id_province": 64,
    "city_name": "KABUPATEN KUTAI KARTANEGARA"
  },
  {
    "id": 6404,
    "id_province": 64,
    "city_name": "KABUPATEN KUTAI TIMUR"
  },
  {
    "id": 6405,
    "id_province": 64,
    "city_name": "KABUPATEN BERAU"
  },
  {
    "id": 6409,
    "id_province": 64,
    "city_name": "KABUPATEN PENAJAM PASER UTARA"
  },
  {
    "id": 6411,
    "id_province": 64,
    "city_name": "KABUPATEN MAHAKAM HULU"
  },
  {
    "id": 6471,
    "id_province": 64,
    "city_name": "KOTA BALIKPAPAN"
  },
  {
    "id": 6472,
    "id_province": 64,
    "city_name": "KOTA SAMARINDA"
  },
  {
    "id": 6474,
    "id_province": 64,
    "city_name": "KOTA BONTANG"
  },
  {
    "id": 6501,
    "id_province": 65,
    "city_name": "KABUPATEN MALINAU"
  },
  {
    "id": 6502,
    "id_province": 65,
    "city_name": "KABUPATEN BULUNGAN"
  },
  {
    "id": 6503,
    "id_province": 65,
    "city_name": "KABUPATEN TANA TIDUNG"
  },
  {
    "id": 6504,
    "id_province": 65,
    "city_name": "KABUPATEN NUNUKAN"
  },
  {
    "id": 6571,
    "id_province": 65,
    "city_name": "KOTA TARAKAN"
  },
  {
    "id": 7101,
    "id_province": 71,
    "city_name": "KABUPATEN BOLAANG MONGONDOW"
  },
  {
    "id": 7102,
    "id_province": 71,
    "city_name": "KABUPATEN MINAHASA"
  },
  {
    "id": 7103,
    "id_province": 71,
    "city_name": "KABUPATEN KEPULAUAN SANGIHE"
  },
  {
    "id": 7104,
    "id_province": 71,
    "city_name": "KABUPATEN KEPULAUAN TALAUD"
  },
  {
    "id": 7105,
    "id_province": 71,
    "city_name": "KABUPATEN MINAHASA SELATAN"
  },
  {
    "id": 7106,
    "id_province": 71,
    "city_name": "KABUPATEN MINAHASA UTARA"
  },
  {
    "id": 7107,
    "id_province": 71,
    "city_name": "KABUPATEN BOLAANG MONGONDOW UTARA"
  },
  {
    "id": 7108,
    "id_province": 71,
    "city_name": "KABUPATEN SIAU TAGULANDANG BIARO"
  },
  {
    "id": 7109,
    "id_province": 71,
    "city_name": "KABUPATEN MINAHASA TENGGARA"
  },
  {
    "id": 7110,
    "id_province": 71,
    "city_name": "KABUPATEN BOLAANG MONGONDOW SELATAN"
  },
  {
    "id": 7111,
    "id_province": 71,
    "city_name": "KABUPATEN BOLAANG MONGONDOW TIMUR"
  },
  {
    "id": 7171,
    "id_province": 71,
    "city_name": "KOTA MANADO"
  },
  {
    "id": 7172,
    "id_province": 71,
    "city_name": "KOTA BITUNG"
  },
  {
    "id": 7173,
    "id_province": 71,
    "city_name": "KOTA TOMOHON"
  },
  {
    "id": 7174,
    "id_province": 71,
    "city_name": "KOTA KOTAMOBAGU"
  },
  {
    "id": 7201,
    "id_province": 72,
    "city_name": "KABUPATEN BANGGAI KEPULAUAN"
  },
  {
    "id": 7202,
    "id_province": 72,
    "city_name": "KABUPATEN BANGGAI"
  },
  {
    "id": 7203,
    "id_province": 72,
    "city_name": "KABUPATEN MOROWALI"
  },
  {
    "id": 7204,
    "id_province": 72,
    "city_name": "KABUPATEN POSO"
  },
  {
    "id": 7205,
    "id_province": 72,
    "city_name": "KABUPATEN DONGGALA"
  },
  {
    "id": 7206,
    "id_province": 72,
    "city_name": "KABUPATEN TOLI-TOLI"
  },
  {
    "id": 7207,
    "id_province": 72,
    "city_name": "KABUPATEN BUOL"
  },
  {
    "id": 7208,
    "id_province": 72,
    "city_name": "KABUPATEN PARIGI MOUTONG"
  },
  {
    "id": 7209,
    "id_province": 72,
    "city_name": "KABUPATEN TOJO UNA-UNA"
  },
  {
    "id": 7210,
    "id_province": 72,
    "city_name": "KABUPATEN SIGI"
  },
  {
    "id": 7211,
    "id_province": 72,
    "city_name": "KABUPATEN BANGGAI LAUT"
  },
  {
    "id": 7212,
    "id_province": 72,
    "city_name": "KABUPATEN MOROWALI UTARA"
  },
  {
    "id": 7271,
    "id_province": 72,
    "city_name": "KOTA PALU"
  },
  {
    "id": 7301,
    "id_province": 73,
    "city_name": "KABUPATEN KEPULAUAN SELAYAR"
  },
  {
    "id": 7302,
    "id_province": 73,
    "city_name": "KABUPATEN BULUKUMBA"
  },
  {
    "id": 7303,
    "id_province": 73,
    "city_name": "KABUPATEN BANTAENG"
  },
  {
    "id": 7304,
    "id_province": 73,
    "city_name": "KABUPATEN JENEPONTO"
  },
  {
    "id": 7305,
    "id_province": 73,
    "city_name": "KABUPATEN TAKALAR"
  },
  {
    "id": 7306,
    "id_province": 73,
    "city_name": "KABUPATEN GOWA"
  },
  {
    "id": 7307,
    "id_province": 73,
    "city_name": "KABUPATEN SINJAI"
  },
  {
    "id": 7308,
    "id_province": 73,
    "city_name": "KABUPATEN MAROS"
  },
  {
    "id": 7309,
    "id_province": 73,
    "city_name": "KABUPATEN PANGKAJENE DAN KEPULAUAN"
  },
  {
    "id": 7310,
    "id_province": 73,
    "city_name": "KABUPATEN BARRU"
  },
  {
    "id": 7311,
    "id_province": 73,
    "city_name": "KABUPATEN BONE"
  },
  {
    "id": 7312,
    "id_province": 73,
    "city_name": "KABUPATEN SOPPENG"
  },
  {
    "id": 7313,
    "id_province": 73,
    "city_name": "KABUPATEN WAJO"
  },
  {
    "id": 7314,
    "id_province": 73,
    "city_name": "KABUPATEN SIDENRENG RAPPANG"
  },
  {
    "id": 7315,
    "id_province": 73,
    "city_name": "KABUPATEN PINRANG"
  },
  {
    "id": 7316,
    "id_province": 73,
    "city_name": "KABUPATEN ENREKANG"
  },
  {
    "id": 7317,
    "id_province": 73,
    "city_name": "KABUPATEN LUWU"
  },
  {
    "id": 7318,
    "id_province": 73,
    "city_name": "KABUPATEN TANA TORAJA"
  },
  {
    "id": 7322,
    "id_province": 73,
    "city_name": "KABUPATEN LUWU UTARA"
  },
  {
    "id": 7325,
    "id_province": 73,
    "city_name": "KABUPATEN LUWU TIMUR"
  },
  {
    "id": 7326,
    "id_province": 73,
    "city_name": "KABUPATEN TORAJA UTARA"
  },
  {
    "id": 7371,
    "id_province": 73,
    "city_name": "KOTA MAKASSAR"
  },
  {
    "id": 7372,
    "id_province": 73,
    "city_name": "KOTA PAREPARE"
  },
  {
    "id": 7373,
    "id_province": 73,
    "city_name": "KOTA PALOPO"
  },
  {
    "id": 7401,
    "id_province": 74,
    "city_name": "KABUPATEN BUTON"
  },
  {
    "id": 7402,
    "id_province": 74,
    "city_name": "KABUPATEN MUNA"
  },
  {
    "id": 7403,
    "id_province": 74,
    "city_name": "KABUPATEN KONAWE"
  },
  {
    "id": 7404,
    "id_province": 74,
    "city_name": "KABUPATEN KOLAKA"
  },
  {
    "id": 7405,
    "id_province": 74,
    "city_name": "KABUPATEN KONAWE SELATAN"
  },
  {
    "id": 7406,
    "id_province": 74,
    "city_name": "KABUPATEN BOMBANA"
  },
  {
    "id": 7407,
    "id_province": 74,
    "city_name": "KABUPATEN WAKATOBI"
  },
  {
    "id": 7408,
    "id_province": 74,
    "city_name": "KABUPATEN KOLAKA UTARA"
  },
  {
    "id": 7409,
    "id_province": 74,
    "city_name": "KABUPATEN BUTON UTARA"
  },
  {
    "id": 7410,
    "id_province": 74,
    "city_name": "KABUPATEN KONAWE UTARA"
  },
  {
    "id": 7411,
    "id_province": 74,
    "city_name": "KABUPATEN KOLAKA TIMUR"
  },
  {
    "id": 7412,
    "id_province": 74,
    "city_name": "KABUPATEN KONAWE KEPULAUAN"
  },
  {
    "id": 7413,
    "id_province": 74,
    "city_name": "KABUPATEN MUNA BARAT"
  },
  {
    "id": 7414,
    "id_province": 74,
    "city_name": "KABUPATEN BUTON TENGAH"
  },
  {
    "id": 7415,
    "id_province": 74,
    "city_name": "KABUPATEN BUTON SELATAN"
  },
  {
    "id": 7471,
    "id_province": 74,
    "city_name": "KOTA KENDARI"
  },
  {
    "id": 7472,
    "id_province": 74,
    "city_name": "KOTA BAUBAU"
  },
  {
    "id": 7501,
    "id_province": 75,
    "city_name": "KABUPATEN BOALEMO"
  },
  {
    "id": 7502,
    "id_province": 75,
    "city_name": "KABUPATEN GORONTALO"
  },
  {
    "id": 7503,
    "id_province": 75,
    "city_name": "KABUPATEN POHUWATO"
  },
  {
    "id": 7504,
    "id_province": 75,
    "city_name": "KABUPATEN BONE BOLANGO"
  },
  {
    "id": 7505,
    "id_province": 75,
    "city_name": "KABUPATEN GORONTALO UTARA"
  },
  {
    "id": 7571,
    "id_province": 75,
    "city_name": "KOTA GORONTALO"
  },
  {
    "id": 7601,
    "id_province": 76,
    "city_name": "KABUPATEN MAJENE"
  },
  {
    "id": 7602,
    "id_province": 76,
    "city_name": "KABUPATEN POLEWALI MANDAR"
  },
  {
    "id": 7603,
    "id_province": 76,
    "city_name": "KABUPATEN MAMASA"
  },
  {
    "id": 7604,
    "id_province": 76,
    "city_name": "KABUPATEN MAMUJU"
  },
  {
    "id": 7605,
    "id_province": 76,
    "city_name": "KABUPATEN MAMUJU UTARA"
  },
  {
    "id": 7606,
    "id_province": 76,
    "city_name": "KABUPATEN MAMUJU TENGAH"
  },
  {
    "id": 8101,
    "id_province": 81,
    "city_name": "KABUPATEN MALUKU TENGGARA BARAT"
  },
  {
    "id": 8102,
    "id_province": 81,
    "city_name": "KABUPATEN MALUKU TENGGARA"
  },
  {
    "id": 8103,
    "id_province": 81,
    "city_name": "KABUPATEN MALUKU TENGAH"
  },
  {
    "id": 8104,
    "id_province": 81,
    "city_name": "KABUPATEN BURU"
  },
  {
    "id": 8105,
    "id_province": 81,
    "city_name": "KABUPATEN KEPULAUAN ARU"
  },
  {
    "id": 8106,
    "id_province": 81,
    "city_name": "KABUPATEN SERAM BAGIAN BARAT"
  },
  {
    "id": 8107,
    "id_province": 81,
    "city_name": "KABUPATEN SERAM BAGIAN TIMUR"
  },
  {
    "id": 8108,
    "id_province": 81,
    "city_name": "KABUPATEN MALUKU BARAT DAYA"
  },
  {
    "id": 8109,
    "id_province": 81,
    "city_name": "KABUPATEN BURU SELATAN"
  },
  {
    "id": 8171,
    "id_province": 81,
    "city_name": "KOTA AMBON"
  },
  {
    "id": 8172,
    "id_province": 81,
    "city_name": "KOTA TUAL"
  },
  {
    "id": 8201,
    "id_province": 82,
    "city_name": "KABUPATEN HALMAHERA BARAT"
  },
  {
    "id": 8202,
    "id_province": 82,
    "city_name": "KABUPATEN HALMAHERA TENGAH"
  },
  {
    "id": 8203,
    "id_province": 82,
    "city_name": "KABUPATEN KEPULAUAN SULA"
  },
  {
    "id": 8204,
    "id_province": 82,
    "city_name": "KABUPATEN HALMAHERA SELATAN"
  },
  {
    "id": 8205,
    "id_province": 82,
    "city_name": "KABUPATEN HALMAHERA UTARA"
  },
  {
    "id": 8206,
    "id_province": 82,
    "city_name": "KABUPATEN HALMAHERA TIMUR"
  },
  {
    "id": 8207,
    "id_province": 82,
    "city_name": "KABUPATEN PULAU MOROTAI"
  },
  {
    "id": 8208,
    "id_province": 82,
    "city_name": "KABUPATEN PULAU TALIABU"
  },
  {
    "id": 8271,
    "id_province": 82,
    "city_name": "KOTA TERNATE"
  },
  {
    "id": 8272,
    "id_province": 82,
    "city_name": "KOTA TIDORE KEPULAUAN"
  },
  {
    "id": 9101,
    "id_province": 91,
    "city_name": "KABUPATEN FAKFAK"
  },
  {
    "id": 9102,
    "id_province": 91,
    "city_name": "KABUPATEN KAIMANA"
  },
  {
    "id": 9103,
    "id_province": 91,
    "city_name": "KABUPATEN TELUK WONDAMA"
  },
  {
    "id": 9104,
    "id_province": 91,
    "city_name": "KABUPATEN TELUK BINTUNI"
  },
  {
    "id": 9105,
    "id_province": 91,
    "city_name": "KABUPATEN MANOKWARI"
  },
  {
    "id": 9106,
    "id_province": 91,
    "city_name": "KABUPATEN SORONG SELATAN"
  },
  {
    "id": 9107,
    "id_province": 91,
    "city_name": "KABUPATEN SORONG"
  },
  {
    "id": 9108,
    "id_province": 91,
    "city_name": "KABUPATEN RAJA AMPAT"
  },
  {
    "id": 9109,
    "id_province": 91,
    "city_name": "KABUPATEN TAMBRAUW"
  },
  {
    "id": 9110,
    "id_province": 91,
    "city_name": "KABUPATEN MAYBRAT"
  },
  {
    "id": 9111,
    "id_province": 91,
    "city_name": "KABUPATEN MANOKWARI SELATAN"
  },
  {
    "id": 9112,
    "id_province": 91,
    "city_name": "KABUPATEN PEGUNUNGAN ARFAK"
  },
  {
    "id": 9171,
    "id_province": 91,
    "city_name": "KOTA SORONG"
  },
  {
    "id": 9401,
    "id_province": 94,
    "city_name": "KABUPATEN MERAUKE"
  },
  {
    "id": 9402,
    "id_province": 94,
    "city_name": "KABUPATEN JAYAWIJAYA"
  },
  {
    "id": 9403,
    "id_province": 94,
    "city_name": "KABUPATEN JAYAPURA"
  },
  {
    "id": 9404,
    "id_province": 94,
    "city_name": "KABUPATEN NABIRE"
  },
  {
    "id": 9408,
    "id_province": 94,
    "city_name": "KABUPATEN KEPULAUAN YAPEN"
  },
  {
    "id": 9409,
    "id_province": 94,
    "city_name": "KABUPATEN BIAK NUMFOR"
  },
  {
    "id": 9410,
    "id_province": 94,
    "city_name": "KABUPATEN PANIAI"
  },
  {
    "id": 9411,
    "id_province": 94,
    "city_name": "KABUPATEN PUNCAK JAYA"
  },
  {
    "id": 9412,
    "id_province": 94,
    "city_name": "KABUPATEN MIMIKA"
  },
  {
    "id": 9413,
    "id_province": 94,
    "city_name": "KABUPATEN BOVEN DIGOEL"
  },
  {
    "id": 9414,
    "id_province": 94,
    "city_name": "KABUPATEN MAPPI"
  },
  {
    "id": 9415,
    "id_province": 94,
    "city_name": "KABUPATEN ASMAT"
  },
  {
    "id": 9416,
    "id_province": 94,
    "city_name": "KABUPATEN YAHUKIMO"
  },
  {
    "id": 9417,
    "id_province": 94,
    "city_name": "KABUPATEN PEGUNUNGAN BINTANG"
  },
  {
    "id": 9418,
    "id_province": 94,
    "city_name": "KABUPATEN TOLIKARA"
  },
  {
    "id": 9419,
    "id_province": 94,
    "city_name": "KABUPATEN SARMI"
  },
  {
    "id": 9420,
    "id_province": 94,
    "city_name": "KABUPATEN KEEROM"
  },
  {
    "id": 9426,
    "id_province": 94,
    "city_name": "KABUPATEN WAROPEN"
  },
  {
    "id": 9427,
    "id_province": 94,
    "city_name": "KABUPATEN SUPIORI"
  },
  {
    "id": 9428,
    "id_province": 94,
    "city_name": "KABUPATEN MAMBERAMO RAYA"
  },
  {
    "id": 9429,
    "id_province": 94,
    "city_name": "KABUPATEN NDUGA"
  },
  {
    "id": 9430,
    "id_province": 94,
    "city_name": "KABUPATEN LANNY JAYA"
  },
  {
    "id": 9431,
    "id_province": 94,
    "city_name": "KABUPATEN MAMBERAMO TENGAH"
  },
  {
    "id": 9432,
    "id_province": 94,
    "city_name": "KABUPATEN YALIMO"
  },
  {
    "id": 9433,
    "id_province": 94,
    "city_name": "KABUPATEN PUNCAK"
  },
  {
    "id": 9434,
    "id_province": 94,
    "city_name": "KABUPATEN DOGIYAI"
  },
  {
    "id": 9435,
    "id_province": 94,
    "city_name": "KABUPATEN INTAN JAYA"
  },
  {
    "id": 9436,
    "id_province": 94,
    "city_name": "KABUPATEN DEIYAI"
  },
  {
    "id": 9471,
    "id_province": 94,
    "city_name": "KOTA JAYAPURA"
  }
]